{
  "extends": ["tslint:recommended", "tslint-config-prettier"],
  "rules": {

    // TypeScript-specific
    "adjacent-overload-signatures": true,
    "ban-ts-ignore": false,
    "ban-types": false,
    "member-access": true,
    "member-ordering": [true, {
      "order": ["static-field", "instance-field", "static-method", "instance-method"]
    }],
    "no-any": false,
    "no-empty-interface": false,
    "no-import-side-effect": true,
    "no-inferrable-types": true,
    "no-internal-module": true,
    "no-magic-numbers": false,
    "no-namespace": true,
    "no-non-null-assertion": true,
    "no-parameter-reassignment": true,
    "no-reference": true,
    "no-unnecessary-type-assertion": true,
    "no-var-requires": true,
    "only-arrow-functions": true,
    "prefer-for-of": true,
    "promise-function-async": true,
    "typedef": [true, "call-signature", "arrow-call-signature", "property-declaration", "member-variable-declaration"],
    "typedef-whitespace": [
      true,
      {
        "call-signature": "nospace",
        "index-signature": "nospace",
        "parameter": "nospace",
        "property-declaration": "nospace",
        "variable-declaration": "nospace"
      },
      {
        "call-signature": "onespace",
        "index-signature": "onespace",
        "parameter": "onespace",
        "property-declaration": "onespace",
        "variable-declaration": "onespace"
      }
    ],
    "unified-signatures": true,

    // Functionality
    "await-promise": true,
    "ban-comma-operator": true,
    "curly": true,
    "forin": true,
    "function-constructor": true,
    "label-position": true,
    "no-arg": true,
    "no-conditional-assignment": true,
    "no-console": false,
    "no-debugger": true,
    "no-duplicate-super": true,
    "no-duplicate-switch-case": true,
    "no-duplicate-variable": true,
    "no-dynamic-delete": true,
    "no-empty": true,
    "no-eval": true,
    "no-floating-promises": true,
    "no-for-in-array": true,
    "no-implicit-dependencies": true,
    "no-inferred-empty-object-type": true,
    "no-invalid-template-strings": true,
    "no-invalid-this": true,
    "no-misused-new": true,
    "no-null-keyword": true,
    "no-object-literal-type-assertion": true,
    "no-return-await": true,
    "no-shadowed-variable": true,
    "no-sparse-arrays": true,
    "no-string-literal": true,
    "no-string-throw": true,
    "no-submodule-imports": true,
    "no-switch-case-fall-through": true,
    "no-this-assignment": true,
    "no-unbound-method": true,
    "no-unnecessary-class": true,
    "no-unsafe-any": true,
    "no-unsafe-finally": true,
    "no-unused-expression": true,
    // "no-unused-variable": true, // Deprecated
    "no-use-before-declare": true,
    "no-var-keyword": true,
    "no-void-expression": true,
    "prefer-conditional-expression": true,
    "prefer-object-spread": true,
    "radix": true,
    "restrict-plus-operands": true,
    "strict-boolean-expressions": true,
    "strict-type-predicates": true,
    "switch-default": true,
    "triple-equals": true,
    //"typeof-compare": true, // Deprecated
    "unnecessary-constructor": true,
    "use-default-type-parameter": true,
    "use-isnan": true,

    // Maintainability
    "cyclomatic-complexity": [true, 20],
    "deprecation": true,
    "eofline": true,
    "indent": [true, "spaces", 4],
    "linebreak-style": [true, "LF"],
    "max-classes-per-file": false,
    "max-file-line-count": false,
    "max-line-length": false,
    "no-default-export": false,
    "no-default-import": true,
    "no-duplicate-imports": true,
    "no-mergeable-namespace": true,
    "no-require-imports": true,
    "object-literal-sort-keys": false,
    "prefer-const": true,
    "prefer-readonly": true,
    "trailing-comma": [false, {"multiline": "always", "singleline": "always"}],

    // Style
    "align": [true, "parameters", "statements", "members", "elements"],
    "array-type": [true, "array"],
    "arrow-parens": true,
    "arrow-return-shorthand": false,
    "binary-expression-operand-order": true,
    "callable-types": true,
    "class-name": true,
    "comment-format": true,
    "comment-type": [true, "doc", "multiline", "singleline"],
    "completed-docs": false,
    "encoding": true,
    "file-header": false,
    "file-name-casing": false,
    "import-spacing": true,
    "increment-decrement": false,
    "interface-name": true,
    "interface-over-type-literal": true,
    "jsdoc-format": true,
    "match-default-export-name": true,
    "newline-before-return": true,
    "newline-per-chained-call": false,
    "new-parens": true,
    "no-angle-bracket-type-assertion": true,
    "no-boolean-literal-compare": true,
    "no-consecutive-blank-lines": true,
    "no-irregular-whitespace": true,
    "no-parameter-properties": false,
    "no-redundant-jsdoc": false,
    "no-reference-import": true,
    "no-trailing-whitespace": true,
    "no-unnecessary-callback-wrapper": true,
    "no-unnecessary-initializer": true,
    "no-unnecessary-qualifier": true,
    "number-literal-format": true,
    "object-literal-key-quotes": [true, "consistent"],
    "object-literal-shorthand": true,
    "one-line": [true, "check-catch", "check-finally", "check-else", "check-open-brace", "check-whitespace"],
    "one-variable-per-declaration": true,
    "ordered-imports": true,
    "prefer-function-over-method": true,
    "prefer-method-signature": true,
    "prefer-switch": false,
    "prefer-template": true,
    "prefer-while": true,
    "quotemark": [true, "double"],
    "return-undefined": true,
    "semicolon": true,
    "space-before-function-paren": false,
    "space-within-parens": true,
    "switch-final-break": false,
    "type-literal-delimiter": true,
    "unnecessary-bind": true,
    "variable-name": [true, "ban-keywords", "check-format", "allow-snake-case"],
    "whitespace": [true, "check-branch", "check-decl", "check-operator", "check-module", "check-separator", "check-rest-spread", "check-type", "check-typecast", "check-type-operator", "check-preblock"]
  }
}

